{
  "log": {
    "version": "1.2",
    "creator": {
      "name": "Playwright",
      "version": "1.44.0-beta-1715802478000"
    },
    "browser": {
      "name": "chromium",
      "version": "125.0.6422.26"
    },
    "entries": [
      {
        "startedDateTime": "2024-07-08T21:59:48.231Z",
        "time": 1.39,
        "request": {
          "method": "GET",
          "url": "https://reqres.in/api/users?page=2",
          "httpVersion": "HTTP/2.0",
          "cookies": [],
          "headers": [
            { "name": ":authority", "value": "reqres.in" },
            { "name": ":method", "value": "GET" },
            { "name": ":path", "value": "/api/users?page=2" },
            { "name": ":scheme", "value": "https" },
            { "name": "accept", "value": "*/*" },
            { "name": "accept-encoding", "value": "gzip, deflate, br, zstd" },
            { "name": "accept-language", "value": "ru-RU,ru;q=0.9" },
            { "name": "content-type", "value": "application/json" },
            { "name": "priority", "value": "u=1, i" },
            { "name": "referer", "value": "https://reqres.in/" },
            { "name": "sec-ch-ua", "value": "\"Chromium\";v=\"125\", \"Not.A/Brand\";v=\"24\"" },
            { "name": "sec-ch-ua-mobile", "value": "?0" },
            { "name": "sec-ch-ua-platform", "value": "\"Windows\"" },
            { "name": "sec-fetch-dest", "value": "empty" },
            { "name": "sec-fetch-mode", "value": "cors" },
            { "name": "sec-fetch-site", "value": "same-origin" },
            { "name": "user-agent", "value": "Mozilla/5.0 (Windows NT 10.0; Win64; x64) AppleWebKit/537.36 (KHTML, like Gecko) Chrome/125.0.0.0 Safari/537.36" }
          ],
          "queryString": [
            {
              "name": "page",
              "value": "2"
            }
          ],
          "headersSize": -1,
          "bodySize": -1
        },
        "response": {
          "status": 200,
          "statusText": "",
          "httpVersion": "HTTP/2.0",
          "cookies": [],
          "headers": [
            { "name": "access-control-allow-origin", "value": "*" },
            { "name": "age", "value": "2060" },
            { "name": "cache-control", "value": "max-age=14400" },
            { "name": "cf-cache-status", "value": "HIT" },
            { "name": "cf-ray", "value": "8a0357ee4b7a2de6-DME" },
            { "name": "content-encoding", "value": "br" },
            { "name": "content-type", "value": "application/json; charset=utf-8" },
            { "name": "date", "value": "Mon, 08 Jul 2024 21:59:48 GMT" },
            { "name": "etag", "value": "W/\"406-ut0vzoCuidvyMf8arZpMpJ6ZRDw\"" },
            { "name": "nel", "value": "{\"report_to\":\"heroku-nel\",\"max_age\":3600,\"success_fraction\":0.005,\"failure_fraction\":0.05,\"response_headers\":[\"Via\"]}" },
            { "name": "report-to", "value": "{\"group\":\"heroku-nel\",\"max_age\":3600,\"endpoints\":[{\"url\":\"https://nel.heroku.com/reports?ts=1720297647&sid=c4c9725f-1ab0-44d8-820f-430df2718e11&s=zFiByk4gOcA0Hi3lMSMSnRw7E835ZAQLVdDI8VdA4Xk%3D\"}]}" },
            { "name": "reporting-endpoints", "value": "heroku-nel=https://nel.heroku.com/reports?ts=1720297647&sid=c4c9725f-1ab0-44d8-820f-430df2718e11&s=zFiByk4gOcA0Hi3lMSMSnRw7E835ZAQLVdDI8VdA4Xk%3D" },
            { "name": "server", "value": "cloudflare" },
            { "name": "vary", "value": "Accept-Encoding" },
            { "name": "via", "value": "1.1 vegur" },
            { "name": "x-powered-by", "value": "Express" }
          ],
          "content": {
            "size": -1,
            "mimeType": "application/json; charset=utf-8",
            "text": "{\"page\":2,\"per_page\":6,\"total\":12,\"total_pages\":2,\"data\":[{\"id\":7,\"email\":\"michael.lawson@reqres.in\",\"first_name\":\"Michael\",\"last_name\":\"Lawson\",\"avatar\":\"https://reqres.in/img/faces/7-image.jpg\"},{\"id\":8,\"email\":\"lindsay.ferguson@reqres.in\",\"first_name\":\"Lindsay\",\"last_name\":\"Ferguson\",\"avatar\":\"https://reqres.in/img/faces/8-image.jpg\"},{\"id\":9,\"email\":\"tobias.funke@reqres.in\",\"first_name\":\"Tobias\",\"last_name\":\"Funke\",\"avatar\":\"https://reqres.in/img/faces/9-image.jpg\"},{\"id\":10,\"email\":\"byron.fields@reqres.in\",\"first_name\":\"Byron\",\"last_name\":\"Fields\",\"avatar\":\"https://reqres.in/img/faces/10-image.jpg\"},{\"id\":11,\"email\":\"george.edwards@reqres.in\",\"first_name\":\"George\",\"last_name\":\"Edwards\",\"avatar\":\"https://reqres.in/img/faces/11-image.jpg\"},{\"id\":12,\"email\":\"rachel.howell@reqres.in\",\"first_name\":\"Rachel\",\"last_name\":\"Howell\",\"avatar\":\"https://reqres.in/img/faces/12-image.jpg\"}],\"support\":{\"url\":\"https://reqres.in/#support-heading\",\"text\":\"To keep ReqRes free, contributions towards server costs are appreciated!\"}}"
          },
          "headersSize": -1,
          "bodySize": -1,
          "redirectURL": ""
        },
        "cache": {},
        "timings": { "send": -1, "wait": -1, "receive": 1.39 }
      },
      {
        "startedDateTime": "2024-07-08T21:59:51.384Z",
        "time": 2.103,
        "request": {
          "method": "GET",
          "url": "https://codesandbox.io/api/v1/sandboxes/j17lt/phishing",
          "httpVersion": "HTTP/2.0",
          "cookies": [],
          "headers": [
            { "name": ":authority", "value": "codesandbox.io" },
            { "name": ":method", "value": "GET" },
            { "name": ":path", "value": "/api/v1/sandboxes/j17lt/phishing" },
            { "name": ":scheme", "value": "https" },
            { "name": "accept", "value": "*/*" },
            { "name": "accept-encoding", "value": "gzip, deflate, br, zstd" },
            { "name": "accept-language", "value": "ru-RU,ru;q=0.9" },
            { "name": "origin", "value": "https://j17lt.csb.app" },
            { "name": "priority", "value": "u=1, i" },
            { "name": "referer", "value": "https://j17lt.csb.app/" },
            { "name": "sec-ch-ua", "value": "\"Chromium\";v=\"125\", \"Not.A/Brand\";v=\"24\"" },
            { "name": "sec-ch-ua-mobile", "value": "?0" },
            { "name": "sec-ch-ua-platform", "value": "\"Windows\"" },
            { "name": "sec-fetch-dest", "value": "empty" },
            { "name": "sec-fetch-mode", "value": "cors" },
            { "name": "sec-fetch-site", "value": "cross-site" },
            { "name": "user-agent", "value": "Mozilla/5.0 (Windows NT 10.0; Win64; x64) AppleWebKit/537.36 (KHTML, like Gecko) Chrome/125.0.0.0 Safari/537.36" }
          ],
          "queryString": [],
          "headersSize": -1,
          "bodySize": -1
        },
        "response": {
          "status": 200,
          "statusText": "",
          "httpVersion": "HTTP/2.0",
          "cookies": [],
          "headers": [
            { "name": "access-control-allow-credentials", "value": "true" },
            { "name": "access-control-allow-origin", "value": "https://j17lt.csb.app" },
            { "name": "cache-control", "value": "private, max-age=0, no-cache, no-store" },
            { "name": "cf-cache-status", "value": "DYNAMIC" },
            { "name": "cf-ray", "value": "8a03580208a59dbb-DME" },
            { "name": "content-length", "value": "33" },
            { "name": "content-type", "value": "application/json; charset=utf-8" },
            { "name": "date", "value": "Mon, 08 Jul 2024 21:59:51 GMT" },
            { "name": "server", "value": "cloudflare" },
            { "name": "set-cookie", "value": "signedIn=; path=/; expires=Thu, 01 Jan 1970 00:00:00 GMT; max-age=0; HttpOnly" },
            { "name": "set-cookie", "value": "_cfuvid=LwMfxbDjF.ERAS2zrC4b8BEE.emUYc6H1wlpd7TbYwM-1720475991458-0.0.1.1-604800000; path=/; domain=.codesandbox.io; HttpOnly; Secure; SameSite=None" },
            { "name": "vary", "value": "origin" },
            { "name": "via", "value": "1.1 google" },
            { "name": "x-request-id", "value": "F-BbzHhSjaieFY41ZcGm" }
          ],
          "content": {
            "size": -1,
            "mimeType": "application/json; charset=utf-8",
            "text": "{\"deleted\":false,\"flagged\":false}"
          },
          "headersSize": -1,
          "bodySize": -1,
          "redirectURL": ""
        },
        "cache": {},
        "timings": { "send": -1, "wait": -1, "receive": 2.103 }
      },
      {
        "startedDateTime": "2024-07-08T21:59:52.291Z",
        "time": 2.808,
        "request": {
          "method": "GET",
          "url": "https://reqres.in/api/users/",
          "httpVersion": "HTTP/2.0",
          "cookies": [],
          "headers": [
            { "name": ":authority", "value": "reqres.in" },
            { "name": ":method", "value": "GET" },
            { "name": ":path", "value": "/api/users/" },
            { "name": ":scheme", "value": "https" },
            { "name": "accept", "value": "*/*" },
            { "name": "accept-encoding", "value": "gzip, deflate, br, zstd" },
            { "name": "accept-language", "value": "ru-RU,ru;q=0.9" },
            { "name": "origin", "value": "https://j17lt.csb.app" },
            { "name": "priority", "value": "u=1, i" },
            { "name": "referer", "value": "https://j17lt.csb.app/" },
            { "name": "sec-ch-ua", "value": "\"Chromium\";v=\"125\", \"Not.A/Brand\";v=\"24\"" },
            { "name": "sec-ch-ua-mobile", "value": "?0" },
            { "name": "sec-ch-ua-platform", "value": "\"Windows\"" },
            { "name": "sec-fetch-dest", "value": "empty" },
            { "name": "sec-fetch-mode", "value": "cors" },
            { "name": "sec-fetch-site", "value": "cross-site" },
            { "name": "user-agent", "value": "Mozilla/5.0 (Windows NT 10.0; Win64; x64) AppleWebKit/537.36 (KHTML, like Gecko) Chrome/125.0.0.0 Safari/537.36" }
          ],
          "queryString": [],
          "headersSize": -1,
          "bodySize": -1
        },
        "response": {
          "status": 200,
          "statusText": "",
          "httpVersion": "HTTP/2.0",
          "cookies": [],
          "headers": [
            { "name": "access-control-allow-origin", "value": "*" },
            { "name": "age", "value": "6130" },
            { "name": "cache-control", "value": "max-age=14400" },
            { "name": "cf-cache-status", "value": "HIT" },
            { "name": "cf-ray", "value": "8a03580898397b1b-DME" },
            { "name": "content-encoding", "value": "br" },
            { "name": "content-type", "value": "application/json; charset=utf-8" },
            { "name": "date", "value": "Mon, 08 Jul 2024 21:59:52 GMT" },
            { "name": "etag", "value": "W/\"3e4-2RLXvr5wTg9YQ6aH95CkYoFNuO8\"" },
            { "name": "nel", "value": "{\"report_to\":\"heroku-nel\",\"max_age\":3600,\"success_fraction\":0.005,\"failure_fraction\":0.05,\"response_headers\":[\"Via\"]}" },
            { "name": "report-to", "value": "{\"group\":\"heroku-nel\",\"max_age\":3600,\"endpoints\":[{\"url\":\"https://nel.heroku.com/reports?ts=1718262257&sid=c4c9725f-1ab0-44d8-820f-430df2718e11&s=4TNyjMxyuvLOVh6Ytxiu2IwfaAIlsjeptNWWediren4%3D\"}]}" },
            { "name": "reporting-endpoints", "value": "heroku-nel=https://nel.heroku.com/reports?ts=1718262257&sid=c4c9725f-1ab0-44d8-820f-430df2718e11&s=4TNyjMxyuvLOVh6Ytxiu2IwfaAIlsjeptNWWediren4%3D" },
            { "name": "server", "value": "cloudflare" },
            { "name": "vary", "value": "Accept-Encoding" },
            { "name": "via", "value": "1.1 vegur" },
            { "name": "x-powered-by", "value": "Express" }
          ],
          "content": {
            "size": -1,
            "mimeType": "application/json; charset=utf-8",
            "text": "{\"page\":1,\"per_page\":6,\"total\":12,\"total_pages\":2,\"data\":[{\"id\":1,\"email\":\"george.bluth@reqres.in\",\"first_name\":\"George\",\"last_name\":\"Bluth\",\"avatar\":\"https://reqres.in/img/faces/1-image.jpg\"},{\"id\":2,\"email\":\"janet.weaver@reqres.in\",\"first_name\":\"Janet\",\"last_name\":\"Weaver\",\"avatar\":\"https://reqres.in/img/faces/2-image.jpg\"},{\"id\":3,\"email\":\"emma.wong@reqres.in\",\"first_name\":\"Emma\",\"last_name\":\"Wong\",\"avatar\":\"https://reqres.in/img/faces/3-image.jpg\"},{\"id\":4,\"email\":\"eve.holt@reqres.in\",\"first_name\":\"Eve\",\"last_name\":\"Holt\",\"avatar\":\"https://reqres.in/img/faces/4-image.jpg\"},{\"id\":5,\"email\":\"charles.morris@reqres.in\",\"first_name\":\"Charles\",\"last_name\":\"Morris\",\"avatar\":\"https://reqres.in/img/faces/5-image.jpg\"},{\"id\":6,\"email\":\"tracey.ramos@reqres.in\",\"first_name\":\"Tracey\",\"last_name\":\"Ramos\",\"avatar\":\"https://reqres.in/img/faces/6-image.jpg\"}],\"support\":{\"url\":\"https://reqres.in/#support-heading\",\"text\":\"To keep ReqRes free, contributions towards server costs are appreciated!\"}}"
          },
          "headersSize": -1,
          "bodySize": -1,
          "redirectURL": ""
        },
        "cache": {},
        "timings": { "send": -1, "wait": -1, "receive": 2.808 }
      },
      {
        "startedDateTime": "2024-07-08T21:59:53.351Z",
        "time": 0.789,
        "request": {
          "method": "GET",
          "url": "https://reqres.in/api/users/2",
          "httpVersion": "HTTP/2.0",
          "cookies": [],
          "headers": [
            { "name": ":authority", "value": "reqres.in" },
            { "name": ":method", "value": "GET" },
            { "name": ":path", "value": "/api/users/2" },
            { "name": ":scheme", "value": "https" },
            { "name": "accept", "value": "*/*" },
            { "name": "accept-encoding", "value": "gzip, deflate, br, zstd" },
            { "name": "accept-language", "value": "ru-RU,ru;q=0.9" },
            { "name": "content-type", "value": "application/json" },
            { "name": "cookie", "value": "_gid=GA1.2.373096331.1720475988; _gat=1; _gat_gtag_UA_174008107_1=1; _ga_CESXN06JTW=GS1.1.1720475988.1.0.1720475988.0.0.0; _ga=GA1.1.930459667.1720475988; _ga_WSM10MMEKC=GS1.2.1720475988.1.0.1720475988.0.0.0; __stripe_mid=513cbcba-8670-4f37-9ad3-7d740ac3debee370c2; __stripe_sid=05c0fdce-2a98-4311-b0ff-5bf043b1b149d5f88c" },
            { "name": "priority", "value": "u=1, i" },
            { "name": "referer", "value": "https://reqres.in/" },
            { "name": "sec-ch-ua", "value": "\"Chromium\";v=\"125\", \"Not.A/Brand\";v=\"24\"" },
            { "name": "sec-ch-ua-mobile", "value": "?0" },
            { "name": "sec-ch-ua-platform", "value": "\"Windows\"" },
            { "name": "sec-fetch-dest", "value": "empty" },
            { "name": "sec-fetch-mode", "value": "cors" },
            { "name": "sec-fetch-site", "value": "same-origin" },
            { "name": "user-agent", "value": "Mozilla/5.0 (Windows NT 10.0; Win64; x64) AppleWebKit/537.36 (KHTML, like Gecko) Chrome/125.0.0.0 Safari/537.36" }
          ],
          "queryString": [],
          "headersSize": -1,
          "bodySize": -1
        },
        "response": {
          "status": 200,
          "statusText": "",
          "httpVersion": "HTTP/2.0",
          "cookies": [],
          "headers": [
            { "name": "access-control-allow-origin", "value": "*" },
            { "name": "age", "value": "360" },
            { "name": "cache-control", "value": "max-age=14400" },
            { "name": "cf-cache-status", "value": "HIT" },
            { "name": "cf-ray", "value": "8a03580e4a072de6-DME" },
            { "name": "content-encoding", "value": "br" },
            { "name": "content-type", "value": "application/json; charset=utf-8" },
            { "name": "date", "value": "Mon, 08 Jul 2024 21:59:53 GMT" },
            { "name": "etag", "value": "W/\"118-pbdwwFo9SKNhD3Lx5iHJyngpq00\"" },
            { "name": "nel", "value": "{\"report_to\":\"heroku-nel\",\"max_age\":3600,\"success_fraction\":0.005,\"failure_fraction\":0.05,\"response_headers\":[\"Via\"]}" },
            { "name": "report-to", "value": "{\"group\":\"heroku-nel\",\"max_age\":3600,\"endpoints\":[{\"url\":\"https://nel.heroku.com/reports?ts=1720451642&sid=c4c9725f-1ab0-44d8-820f-430df2718e11&s=2ZDFFeN5uArLR0QKVUWpaCGMERf3eoCvx1JFkx5OsQk%3D\"}]}" },
            { "name": "reporting-endpoints", "value": "heroku-nel=https://nel.heroku.com/reports?ts=1720451642&sid=c4c9725f-1ab0-44d8-820f-430df2718e11&s=2ZDFFeN5uArLR0QKVUWpaCGMERf3eoCvx1JFkx5OsQk%3D" },
            { "name": "server", "value": "cloudflare" },
            { "name": "vary", "value": "Accept-Encoding" },
            { "name": "via", "value": "1.1 vegur" },
            { "name": "x-powered-by", "value": "Express" }
          ],
          "content": {
            "size": -1,
            "mimeType": "application/json; charset=utf-8",
            "text": "{\"data\":{\"id\":2,\"email\":\"janet.weaver@reqres.in\",\"first_name\":\"Janet\",\"last_name\":\"Weaver\",\"avatar\":\"https://reqres.in/img/faces/2-image.jpg\"},\"support\":{\"url\":\"https://reqres.in/#support-heading\",\"text\":\"To keep ReqRes free, contributions towards server costs are appreciated!\"}}"
          },
          "headersSize": -1,
          "bodySize": -1,
          "redirectURL": ""
        },
        "cache": {},
        "timings": { "send": -1, "wait": -1, "receive": 0.789 }
      }
    ]
  }
}